{
    "version": 6,
    "compilerVersion": "1.6.3+commit.ba81e81",
    "contract": "DemoP2PKH",
    "md5": "37711abdee082073423e1c8285d89083",
    "structs": [],
    "alias": [
        {
            "name": "PubKeyHash",
            "type": "Ripemd160"
        }
    ],
    "generics": [
        {
            "genericTypes": [
                "__SCRYPT_K__",
                "__SCRYPT_V__"
            ],
            "library": "HashedMap"
        },
        {
            "genericTypes": [
                "__SCRYPT_E__"
            ],
            "library": "HashedSet"
        }
    ],
    "abi": [
        {
            "type": "function",
            "name": "unlock",
            "index": 0,
            "params": [
                {
                    "name": "sig",
                    "type": "Sig"
                },
                {
                    "name": "pubKey",
                    "type": "PubKey"
                }
            ]
        },
        {
            "type": "constructor",
            "params": [
                {
                    "name": "pubKeyHash",
                    "type": "Ripemd160",
                    "state": false
                }
            ]
        }
    ],
    "buildType": "release",
    "file": "",
    "asm": "OP_0 $pubKeyHash OP_NIP OP_OVER OP_HASH160 OP_OVER OP_EQUALVERIFY OP_3DUP OP_DROP OP_CHECKSIG OP_NIP OP_NIP OP_NIP",
    "hex": "00<pubKeyHash>7778a978886f75ac777777",
    "sources": [],
    "sourceMap": []
}