{
    "version": 6,
    "compilerVersion": "1.6.3+commit.ba81e81",
    "contract": "TestRabinSignature",
    "md5": "f9b0d613de2db6ebd1a8809bb9ea395b",
    "structs": [
        {
            "name": "RabinSig",
            "params": [
                {
                    "name": "s",
                    "type": "int"
                },
                {
                    "name": "padding",
                    "type": "bytes"
                }
            ]
        }
    ],
    "alias": [
        {
            "name": "PubKeyHash",
            "type": "Ripemd160"
        },
        {
            "name": "RabinPubKey",
            "type": "int"
        }
    ],
    "generics": [
        {
            "genericTypes": [
                "__SCRYPT_K__",
                "__SCRYPT_V__"
            ],
            "library": "HashedMap"
        },
        {
            "genericTypes": [
                "__SCRYPT_E__"
            ],
            "library": "HashedSet"
        }
    ],
    "abi": [
        {
            "type": "function",
            "name": "main",
            "index": 0,
            "params": [
                {
                    "name": "msg",
                    "type": "bytes"
                },
                {
                    "name": "sig",
                    "type": "RabinSig"
                },
                {
                    "name": "n",
                    "type": "int"
                }
            ]
        },
        {
            "type": "constructor",
            "params": []
        }
    ],
    "buildType": "release",
    "file": "",
    "asm": "OP_2OVER OP_2OVER OP_3 OP_PICK OP_2 OP_PICK OP_CAT OP_DUP OP_SHA256 OP_DUP OP_SIZE OP_NIP OP_2 OP_DIV OP_2DUP OP_SPLIT OP_DROP OP_SHA256 OP_3DUP OP_DROP OP_SPLIT OP_NIP OP_SHA256 OP_CAT OP_NIP OP_NIP OP_NIP OP_DUP 00 OP_CAT OP_BIN2NUM OP_NIP OP_3 OP_PICK OP_4 OP_PICK OP_MUL OP_2 OP_PICK OP_MOD OP_OVER OP_3 OP_PICK OP_MOD OP_NUMEQUAL OP_NIP OP_NIP OP_NIP OP_NIP OP_NIP OP_NIP OP_NIP OP_NIP OP_NIP",
    "hex": "7070537952797e76a876827752966e7f75a86f757f77a87e7777777601007e81775379547995527997785379979c777777777777777777",
    "sources": [],
    "sourceMap": []
}